%YAML 1.1
%TAG !u! tag:unity3d.com,2011:
--- !u!114 &11400000
MonoBehaviour:
  m_ObjectHideFlags: 0
  m_CorrespondingSourceObject: {fileID: 0}
  m_PrefabInstance: {fileID: 0}
  m_PrefabAsset: {fileID: 0}
  m_GameObject: {fileID: 0}
  m_Enabled: 1
  m_EditorHideFlags: 0
  m_Script: {fileID: 11500000, guid: 29cc2cab4eb31eb49bbe0cef40926557, type: 3}
  m_Name: Quest_Level3
  m_EditorClassIdentifier: 
  difficulty: 4
  generateEnemies:
  - generateObject: 2
    enemy: {fileID: 8267471957455737374, guid: ed19f941e782d0342801c5897f4f3c2a, type: 3}
  - generateObject: 1
    enemy: {fileID: 7974663186134931764, guid: 6ba0bcc620957be4e966d8c4549991e2, type: 3}
  - generateObject: 0
    enemy: {fileID: 9202416207840020445, guid: 075fd1618c7908d4890467056b2e3b87, type: 3}
  firstGenerateTime:
  - 10
  - 5
  - 2
  generateInterval:
  - 6
  - 4
  - 2
  generateSpeedMagnification: 0.85
  backGround: {fileID: 21300000, guid: 9ce6558e5cc65454e801365b7a637b45, type: 3}
